%YAML 1.1
%TAG !u! tag:unity3d.com,2011:
--- !u!114 &11400000
MonoBehaviour:
  m_ObjectHideFlags: 2
  m_CorrespondingSourceObject: {fileID: 0}
  m_PrefabInstance: {fileID: 0}
  m_PrefabAsset: {fileID: 0}
  m_GameObject: {fileID: 0}
  m_Enabled: 1
  m_EditorHideFlags: 0
  m_Script: {fileID: 11500000, guid: b592865877cb54284a5d1d88aec9cfbb, type: 3}
  m_Name: Simulator Provider Settings
  m_EditorClassIdentifier: 
  m_Logging: 1
  m_AutomaticPerformanceModeEnabled: 0
  m_StatsLoggingFrequencyInFrames: 50
  m_IndexerSettings:
    m_Active: 0
    m_ThermalActionDelay: 10
    m_PerformanceActionDelay: 4
  m_ScalerSettings:
    m_AdaptiveFramerate:
      m_Name: Adaptive Framerate
      m_Enabled: 0
      m_Scale: 1
      m_VisualImpact: 2
      m_Target: 7
      m_MaxLevel: 45
      m_MinBound: 15
      m_MaxBound: 60
    m_AdaptiveResolution:
      m_Name: Adaptive Resolution
      m_Enabled: 0
      m_Scale: 1
      m_VisualImpact: 0
      m_Target: 6
      m_MaxLevel: 9
      m_MinBound: 0.5
      m_MaxBound: 1
    m_AdaptiveBatching:
      m_Name: Adaptive Batching
      m_Enabled: 0
      m_Scale: 1
      m_VisualImpact: 1
      m_Target: 1
      m_MaxLevel: 1
      m_MinBound: 0
      m_MaxBound: 1
    m_AdaptiveLOD:
      m_Name: Adaptive LOD
      m_Enabled: 0
      m_Scale: 1
      m_VisualImpact: 2
      m_Target: 2
      m_MaxLevel: 3
      m_MinBound: 0.4
      m_MaxBound: 1
    m_AdaptiveLut:
      m_Name: Adaptive Lut
      m_Enabled: 0
      m_Scale: 1
      m_VisualImpact: 1
      m_Target: 3
      m_MaxLevel: 1
      m_MinBound: 0
      m_MaxBound: 1
    m_AdaptiveMSAA:
      m_Name: Adaptive MSAA
      m_Enabled: 0
      m_Scale: 1
      m_VisualImpact: 1
      m_Target: 6
      m_MaxLevel: 2
      m_MinBound: 0
      m_MaxBound: 1
    m_AdaptiveShadowCascade:
      m_Name: Adaptive Shadow Cascade
      m_Enabled: 0
      m_Scale: 1
      m_VisualImpact: 1
      m_Target: 3
      m_MaxLevel: 2
      m_MinBound: 0
      m_MaxBound: 1
    m_AdaptiveShadowDistance:
      m_Name: Adaptive Shadow Distance
      m_Enabled: 0
      m_Scale: 1
      m_VisualImpact: 0
      m_Target: 2
      m_MaxLevel: 3
      m_MinBound: 0.15
      m_MaxBound: 1
    m_AdaptiveShadowmapResolution:
      m_Name: Adaptive Shadowmap Resolution
      m_Enabled: 0
      m_Scale: 1
      m_VisualImpact: 0
      m_Target: 2
      m_MaxLevel: 3
      m_MinBound: 0.15
      m_MaxBound: 1
    m_AdaptiveShadowQuality:
      m_Name: Adaptive Shadow Quality
      m_Enabled: 0
      m_Scale: 1
      m_VisualImpact: 2
      m_Target: 3
      m_MaxLevel: 3
      m_MinBound: 0
      m_MaxBound: 1
    m_AdaptiveSorting:
      m_Name: Adaptive Sorting
      m_Enabled: 0
      m_Scale: 1
      m_VisualImpact: 1
      m_Target: 1
      m_MaxLevel: 1
      m_MinBound: 0
      m_MaxBound: 1
    m_AdaptiveTransparency:
      m_Name: Adaptive Transparency
      m_Enabled: 0
      m_Scale: 1
      m_VisualImpact: 2
      m_Target: 2
      m_MaxLevel: 1
      m_MinBound: 0
      m_MaxBound: 1
    m_AdaptiveViewDistance:
      m_Name: Adaptive View Distance
      m_Enabled: 0
      m_Scale: 1
      m_VisualImpact: 2
      m_Target: 2
      m_MaxLevel: 40
      m_MinBound: 50
      m_MaxBound: 1000
  m_scalerProfileList:
  - m_AdaptiveFramerate:
      m_Name: Adaptive Framerate
      m_Enabled: 0
      m_Scale: 1
      m_VisualImpact: 2
      m_Target: 7
      m_MaxLevel: 45
      m_MinBound: 15
      m_MaxBound: 60
    m_AdaptiveResolution:
      m_Name: Adaptive Resolution
      m_Enabled: 0
      m_Scale: 1
      m_VisualImpact: 0
      m_Target: 6
      m_MaxLevel: 9
      m_MinBound: 0.5
      m_MaxBound: 1
    m_AdaptiveBatching:
      m_Name: Adaptive Batching
      m_Enabled: 0
      m_Scale: 1
      m_VisualImpact: 1
      m_Target: 1
      m_MaxLevel: 1
      m_MinBound: 0
      m_MaxBound: 1
    m_AdaptiveLOD:
      m_Name: Adaptive LOD
      m_Enabled: 0
      m_Scale: 1
      m_VisualImpact: 2
      m_Target: 2
      m_MaxLevel: 3
      m_MinBound: 0.4
      m_MaxBound: 1
    m_AdaptiveLut:
      m_Name: Adaptive Lut
      m_Enabled: 0
      m_Scale: 1
      m_VisualImpact: 1
      m_Target: 3
      m_MaxLevel: 1
      m_MinBound: 0
      m_MaxBound: 1
    m_AdaptiveMSAA:
      m_Name: Adaptive MSAA
      m_Enabled: 0
      m_Scale: 1
      m_VisualImpact: 1
      m_Target: 6
      m_MaxLevel: 2
      m_MinBound: 0
      m_MaxBound: 1
    m_AdaptiveShadowCascade:
      m_Name: Adaptive Shadow Cascade
      m_Enabled: 0
      m_Scale: 1
      m_VisualImpact: 1
      m_Target: 3
      m_MaxLevel: 2
      m_MinBound: 0
      m_MaxBound: 1
    m_AdaptiveShadowDistance:
      m_Name: Adaptive Shadow Distance
      m_Enabled: 0
      m_Scale: 1
      m_VisualImpact: 0
      m_Target: 2
      m_MaxLevel: 3
      m_MinBound: 0.15
      m_MaxBound: 1
    m_AdaptiveShadowmapResolution:
      m_Name: Adaptive Shadowmap Resolution
      m_Enabled: 0
      m_Scale: 1
      m_VisualImpact: 0
      m_Target: 2
      m_MaxLevel: 3
      m_MinBound: 0.15
      m_MaxBound: 1
    m_AdaptiveShadowQuality:
      m_Name: Adaptive Shadow Quality
      m_Enabled: 0
      m_Scale: 1
      m_VisualImpact: 2
      m_Target: 3
      m_MaxLevel: 3
      m_MinBound: 0
      m_MaxBound: 1
    m_AdaptiveSorting:
      m_Name: Adaptive Sorting
      m_Enabled: 0
      m_Scale: 1
      m_VisualImpact: 1
      m_Target: 1
      m_MaxLevel: 1
      m_MinBound: 0
      m_MaxBound: 1
    m_AdaptiveTransparency:
      m_Name: Adaptive Transparency
      m_Enabled: 0
      m_Scale: 1
      m_VisualImpact: 2
      m_Target: 2
      m_MaxLevel: 1
      m_MinBound: 0
      m_MaxBound: 1
    m_AdaptiveViewDistance:
      m_Name: Adaptive View Distance
      m_Enabled: 0
      m_Scale: 1
      m_VisualImpact: 2
      m_Target: 2
      m_MaxLevel: 40
      m_MinBound: 50
      m_MaxBound: 1000
    m_Name: Default Scaler Profile
  m_DefaultScalerProfilerIndex: 0
  k_AssetVersion: 2
